{
  "AWSTemplateFormatVersion": "2010-09-09",
  "Description": "Pipeline Demo Portfolio for Service Catalog. (fdp-1p4da46nc)",
  "Metadata": {
    "AWS::CloudFormation::Interface": {
      "ParameterGroups": [
        {
          "Label": {
            "default": "Portfolio Information"
          },
          "Parameters": [
            "PorfolioName",
            "PortfolioProvider",
            "PorfolioDescription"
          ]
        },
        {
          "Label": {
            "default": "Product Settings"
          },
          "Parameters": [
            "RepoRootURL"
          ]
        }
      ]
    }
  },
  "Parameters": {
    "PortfolioProvider": {
      "Type": "String",
      "Description": "Provider Name",
      "Default": "DTS"
    },
    "PorfolioName": {
      "Type": "String",
      "Description": "Portfolio Name",
      "Default": "Service Catalog Pipeline"
    },
    "PorfolioDescription": {
      "Type": "String",
      "Description": "Portfolio Description",
      "Default": "Service Catalog Portfolio that contains a pipeline."
    },
    "CodeCommitRepoName": {
      "Type": "String",
      "Description": "Repo Name",
      "Default": "pipelinetestgk"
    },
    "ChildAccountAccess": {
      "Type": "String",
      "Default": ""
    },
    "RepoRootURL": {
      "Type": "String",
      "Default": "https://git-codecommit.ap-southeast-2.amazonaws.com/v1/repos/SCPortfoliosRepo"
    }
  },
  "Resources": {
    "SCPipelineportfolio": {
      "Type": "AWS::ServiceCatalog::Portfolio",
      "Properties": {
        "ProviderName": {
          "Ref": "PortfolioProvider"
        },
        "Description": {
          "Ref": "PorfolioDescription"
        },
        "DisplayName": {
          "Ref": "PorfolioName"
        }
      }
    },
    "scpipelineproduct": {
      "Type": "AWS::ServiceCatalog::CloudFormationProduct",
      "Properties": {
          "Name": "Creates a CICD Pipeline Product",
          "Description": "This product builds the thing that does the thing.",
          "Owner": {"Ref":"PortfolioProvider"},
          "Distributor": {"Ref":"PortfolioProvider"},
          "SupportDescription": "Cloud Centre of Excellence",
          "SupportEmail": "g.knights@curtin.edu.au",
          "AcceptLanguage": "en",
          "SupportUrl": "http://helpdesk.yourcompany.com",
          "ProvisioningArtifactParameters": [
              {
                  "Description": "baseline version",
                  "Info": {
                      "LoadTemplateFromURL": {"Fn::Sub": "${RepoRootURL}sc-pipeline/sc-ec2-linux-ra.json"}
                  },
                  "Name": "v1.0"
              }
          ]
      }
  },
  "Associatepipeline":{
    "Type" : "AWS::ServiceCatalog::PortfolioProductAssociation",
    "Properties" : {
      "PortfolioId" : {"Ref":"SCPipelineportfolio"},
      "ProductId" :   {"Ref":"scpipelineproduct"}
    }
  }
  }
}